<svg xmlns="http://www.w3.org/2000/svg" xmlns:xlink="http://www.w3.org/1999/xlink" width="30" height="30" viewBox="0 0 30 30">
  <defs>
    <linearGradient id="linear-gradient" x1="0.5" x2="0.5" y2="1" gradientUnits="objectBoundingBox">
      <stop offset="0" stop-color="#5ddffc"/>
      <stop offset="1" stop-color="#5499fe"/>
    </linearGradient>
  </defs>
  <g id="组_277" data-name="组 277" transform="translate(-21 -169)">
    <circle id="椭圆_2" data-name="椭圆 2" cx="15" cy="15" r="15" transform="translate(21 169)" fill="url(#linear-gradient)"/>
    <path id="ic_volume_up_24px" d="M3,8.112v5.077H6.385l4.231,4.231V3.882L6.385,8.112Zm11.423,2.538a3.808,3.808,0,0,0-2.115-3.41v6.812A3.786,3.786,0,0,0,14.423,10.651ZM12.308,3.23V4.973a5.925,5.925,0,0,1,0,11.355v1.743a7.61,7.61,0,0,0,0-14.842Z" transform="translate(25 173.77)" fill="#fff"/>
  </g>
</svg>
