<?xml version="1.0" encoding="utf-8"?>
<svg version="1.1" xmlns:serif="http://www.serif.com/"
	 xmlns="http://www.w3.org/2000/svg" xmlns:xlink="http://www.w3.org/1999/xlink" x="0px" y="0px" viewBox="0 0 21.5 22.6"
	 style="enable-background:new 0 0 21.5 22.6;" xml:space="preserve">
<g transform="matrix(1,0,0,1,-1135.62,-528.473)">
	<linearGradient id="SVGID_2_" gradientUnits="userSpaceOnUse" x1="1135.62" y1="549.0671" x2="1136.62" y2="549.0671" gradientTransform="matrix(2.018472e-15 32.9641 32.9641 -2.018472e-15 -16953.1367 -36906.3164)">
		<stop  offset="0" style="stop-color:#6260E3;stop-opacity:0.5"/>
		<stop  offset="1" style="stop-color:#003992;stop-opacity:0.5"/>
	</linearGradient>
	<path fill="url(#SVGID_2_)" d="M1148.9,529.9l-0.5,1.4c0.3,0.1,0.5,0.1,0.8,0.2l-2.4,7.4c-0.2,0-0.3-0.1-0.5-0.1c-0.2,0-0.3,0-0.5,0.1
		l-2.4-7.4c0.3-0.1,0.5-0.2,0.8-0.2l-0.5-1.4c-4.7,1.2-8.2,5.4-8.2,10.5c0,5.9,4.8,10.8,10.8,10.8s10.8-4.8,10.8-10.8
		C1157.1,535.3,1153.6,531,1148.9,529.9z M1138.9,545.8l6.3-4.6c0.2,0.3,0.5,0.5,0.8,0.6l-2.4,7.4
		C1141.6,548.6,1140,547.4,1138.9,545.8z M1149.3,549.2l-2.4-7.4c0.3-0.1,0.6-0.3,0.8-0.6l6.3,4.6
		C1152.8,547.4,1151.1,548.5,1149.3,549.2z M1138.8,534.9l6.3,4.6c-0.2,0.3-0.3,0.6-0.3,0.9c0,0,0,0,0,0l-7.8,0c0,0,0,0,0,0
		C1137.1,538.3,1137.7,536.4,1138.8,534.9z M1147.9,540.3c0-0.3-0.1-0.6-0.3-0.9l6.3-4.6c1.1,1.5,1.8,3.4,1.8,5.5L1147.9,540.3z
		 M1148.6,528.5h-4.4l2.2,6.1L1148.6,528.5z"/>
</g>
</svg>
