<svg width="48" height="48" viewBox="0 0 48 48" xmlns="http://www.w3.org/2000/svg" xmlns:xlink="http://www.w3.org/1999/xlink">
    <g transform="matrix(1.11628,0,0,1.11628,-1122.98,-254.512)">
        <circle cx="1027.5" cy="249.5" r="21.5" style="fill:url(#member-icon-wallet-blue-rounded);"/>
    </g>
    <g transform="matrix(1,0,0,1,-571,-255.367)">
        <path d="M600.984,275.353C601.3,275.353 601.556,275.61 601.556,275.926C601.556,277.594 602.288,278.379 603.134,279.287C604.009,280.226 605,281.29 605,283.37C605,286.295 602.621,288.674 599.696,288.674L590.304,288.674C587.379,288.674 585,286.295 585,283.37C585,281.29 585.992,280.226 586.867,279.287C587.714,278.379 588.444,277.594 588.444,275.926C588.444,275.61 588.701,275.353 589.017,275.353L600.984,275.353ZM590.942,277.359C590.587,277.363 590.259,277.589 590.139,277.943C589.729,279.158 588.988,279.952 588.335,280.654C587.462,281.591 587.006,282.137 587.006,283.37C587.006,285.188 588.486,286.668 590.304,286.668C590.779,286.668 591.164,286.283 591.164,285.808C591.164,285.337 590.785,284.955 590.315,284.949L590.284,284.949C589.423,284.938 588.726,284.234 588.726,283.37C588.726,282.814 588.806,282.67 589.593,281.826C590.288,281.08 591.239,280.059 591.768,278.494C591.919,278.044 591.679,277.557 591.229,277.405C591.137,277.374 591.044,277.359 590.952,277.359L590.942,277.359ZM596.505,272.487C596.532,272.326 596.547,272.159 596.547,271.99C596.547,271.291 596.302,270.648 595.895,270.14C596.062,270.094 596.234,270.06 596.415,270.06C597.479,270.06 598.344,270.926 598.344,271.99C598.344,272.163 598.314,272.328 598.272,272.487L601.86,272.487C602.1,272.487 602.328,272.587 602.491,272.764L603.087,273.406C603.228,273.56 603.61,273.985 604.094,274.626C604.381,275.005 604.306,275.544 603.927,275.83C603.772,275.948 603.589,276.004 603.41,276.004C603.149,276.004 602.892,275.886 602.723,275.663C602.272,275.067 601.922,274.68 601.825,274.575L601.485,274.207L588.517,274.207L588.176,274.574C588.079,274.68 587.728,275.067 587.278,275.663C586.991,276.041 586.452,276.116 586.074,275.83C585.695,275.544 585.62,275.005 585.907,274.626C586.391,273.985 586.773,273.56 586.915,273.406L587.51,272.764C587.672,272.587 587.901,272.487 588.141,272.487L591.729,272.487C591.686,272.328 591.656,272.163 591.656,271.99C591.656,270.926 592.522,270.06 593.587,270.06C594.65,270.06 595.516,270.926 595.516,271.99C595.516,272.163 595.486,272.328 595.443,272.487L596.505,272.487Z" style="fill:white;fill-rule:nonzero;"/>
    </g>
    <defs>
        <linearGradient id="member-icon-wallet-blue-rounded" x1="0" y1="0" x2="1" y2="0" gradientUnits="userSpaceOnUse" gradientTransform="matrix(29.5625,31.3542,-31.3542,29.5625,1020.33,234.271)"><stop offset="0" style="stop-color:rgb(138,209,253);stop-opacity:1"/><stop offset="1" style="stop-color:rgb(69,142,255);stop-opacity:1"/></linearGradient>
    </defs>
</svg>
