<svg xmlns="http://www.w3.org/2000/svg" width="8.143" height="9.5" viewBox="0 0 8.143 9.5">
  <g id="chevrons-right" transform="translate(0 9.5) rotate(-90)">
    <path id="路径_1291" data-name="路径 1291" d="M4.546,4.546,1.154,7.939a.656.656,0,0,1-.95,0,.656.656,0,0,1,0-.95L3.121,4.071.2,1.154A.656.656,0,0,1,.2.2.733.733,0,0,1,.679,0a.733.733,0,0,1,.475.2L4.546,3.6A.656.656,0,0,1,4.546,4.546Z" transform="translate(4.75)" fill="#5296fd"/>
    <path id="路径_1292" data-name="路径 1292" d="M4.546,4.546,1.154,7.939a.656.656,0,0,1-.95,0,.656.656,0,0,1,0-.95L3.121,4.071.2,1.154A.656.656,0,0,1,.2.2.616.616,0,0,1,.679,0a.616.616,0,0,1,.475.2L4.546,3.6A.656.656,0,0,1,4.546,4.546Z" transform="translate(0)" fill="#5296fd"/>
  </g>
</svg>
