<svg id="组件_1_1" data-name="组件 1 – 1" xmlns="http://www.w3.org/2000/svg" width="25" height="25" viewBox="0 0 25 25">
  <path id="矩形_783" data-name="矩形 783" d="M10,0H25a0,0,0,0,1,0,0V15A10,10,0,0,1,15,25H0a0,0,0,0,1,0,0V10A10,10,0,0,1,10,0Z" fill="#5296fd"/>
  <path id="路径_1304" data-name="路径 1304" d="M45.25,85.745a.939.939,0,0,1-.271.658L40.272,91.11l-3.616,3.616a.935.935,0,0,1-1.316,0l-4.819-4.819a.935.935,0,0,1,0-1.316l1.316-1.316a.935.935,0,0,1,1.316,0L36,90.129l6.348-6.358a.935.935,0,0,1,1.316,0l1.316,1.316A.938.938,0,0,1,45.25,85.745Z" transform="translate(-25.25 -76.5)" fill="#fff"/>
</svg>
