<svg xmlns="http://www.w3.org/2000/svg" xmlns:xlink="http://www.w3.org/1999/xlink" viewBox="0 0 22.7 22.7" fill="currentColor">
<path d="M11.3,4.5c-2.5,0-4.5,2-4.5,4.5h2.2c0-1.2,1-2.2,2.2-2.2s2.2,1,2.2,2.2c0,2.2-3.4,2-3.4,5.7h2.2c0-2.6,3.4-2.8,3.4-5.7
	C15.9,6.6,13.9,4.5,11.3,4.5 M11.3,20.4c-5,0-9.1-4-9.1-9.1s4.1-9.1,9.1-9.1s9.1,4,9.1,9.1C20.4,16.4,16.4,20.4,11.3,20.4 M11.3,0
	C5,0,0,5,0,11.3s5,11.3,11.3,11.3s11.3-5,11.3-11.3S17.6,0,11.3,0 M10.2,18.1h2.2v-2.2h-2.2V18.1z"/>
</svg>
