<svg xmlns="http://www.w3.org/2000/svg" width="20" height="20" viewBox="0 0 20 20">
  <path id="ic_error_outline_24px" d="M11,15h2v2H11Zm0-8h2v6H11Zm.99-5A10,10,0,1,0,22,12,10,10,0,0,0,11.99,2ZM12,20a8,8,0,1,1,8-8A8,8,0,0,1,12,20Z" transform="translate(-2 -2)" fill="#bebebe"/>
</svg>
