<svg xmlns="http://www.w3.org/2000/svg" xmlns:xlink="http://www.w3.org/1999/xlink" width="45.441" height="34.347" viewBox="0 0 45.441 34.347">
  <defs>
    <linearGradient id="linear-gradient" x1="0.375" y1="-0.295" x2="0.515" y2="0.658" gradientUnits="objectBoundingBox">
      <stop offset="0" stop-color="#95d7fe"/>
      <stop offset="1" stop-color="#3c71cc"/>
    </linearGradient>
    <linearGradient id="linear-gradient-2" x1="0.5" x2="0.692" y2="0.913" gradientUnits="objectBoundingBox">
      <stop offset="0" stop-color="#95d7fe"/>
      <stop offset="1" stop-color="#467fe3"/>
    </linearGradient>
    <linearGradient id="linear-gradient-3" x1="1" y1="0.188" x2="-0.001" y2="0.633" gradientUnits="objectBoundingBox">
      <stop offset="0" stop-color="#5296fd"/>
      <stop offset="1" stop-color="#95d7fe"/>
    </linearGradient>
  </defs>
  <g id="组_889" data-name="组 889" transform="translate(0 1)">
    <rect id="矩形_624" data-name="矩形 624" width="39.722" height="28.921" rx="5" transform="translate(6.036 -1) rotate(7.243)" fill="url(#linear-gradient)"/>
    <rect id="矩形_625" data-name="矩形 625" width="39.722" height="28.921" rx="6" transform="translate(0 4.426)" fill="url(#linear-gradient-2)"/>
    <rect id="矩形_626" data-name="矩形 626" width="34.87" height="6.701" rx="2.558" transform="translate(2.426 10.76)" fill="#fff" opacity="0.73"/>
    <rect id="矩形_627" data-name="矩形 627" width="12.343" height="2.587" rx="1.294" transform="translate(3.426 27.188)" fill="#fff"/>
    <ellipse id="椭圆_71" data-name="椭圆 71" cx="7.465" cy="7.465" rx="7.465" ry="7.465" transform="translate(22.113 30.888) rotate(-89.893)" fill="url(#linear-gradient-3)"/>
    <path id="ic_perm_data_setting_24px" d="M22.245,19.2a3.68,3.68,0,0,0,.038-.464,2.489,2.489,0,0,0-.038-.464l1-.786a.246.246,0,0,0,.057-.3l-.947-1.638a.24.24,0,0,0-.294-.1l-1.174.473a3.24,3.24,0,0,0-.8-.464l-.18-1.25a.226.226,0,0,0-.227-.2H17.784a.243.243,0,0,0-.237.2l-.18,1.25a3.783,3.783,0,0,0-.8.464l-1.174-.473a.248.248,0,0,0-.294.1l-.947,1.638a.234.234,0,0,0,.057.3l1,.786a3.8,3.8,0,0,0,0,.928l-1,.786a.246.246,0,0,0-.057.3l.947,1.638a.24.24,0,0,0,.294.1l1.174-.473a3.239,3.239,0,0,0,.8.464l.18,1.25a.236.236,0,0,0,.237.2h1.894a.243.243,0,0,0,.237-.2l.18-1.25a3.5,3.5,0,0,0,.8-.464l1.184.473a.248.248,0,0,0,.294-.1l.947-1.638a.246.246,0,0,0-.057-.3Zm-3.513.956a1.42,1.42,0,1,1,1.42-1.42A1.419,1.419,0,0,1,18.731,20.155Z" transform="translate(10.796 4.758)" fill="#fff"/>
  </g>
</svg>
