<?xml version="1.0" encoding="UTF-8" standalone="no"?>
<!DOCTYPE svg PUBLIC "-//W3C//DTD SVG 1.1//EN" "http://www.w3.org/Graphics/SVG/1.1/DTD/svg11.dtd">
<svg width="100%" height="100%" viewBox="0 0 32 32" version="1.1" xmlns="http://www.w3.org/2000/svg" xmlns:xlink="http://www.w3.org/1999/xlink" xml:space="preserve" xmlns:serif="http://www.serif.com/" style="fill-rule:evenodd;clip-rule:evenodd;stroke-linejoin:round;stroke-miterlimit:2;">
    <g transform="matrix(1,0,0,1,-1347.25,-527.763)">
        <path d="M1362.92,527.763C1354.28,527.763 1347.25,534.79 1347.25,543.428C1347.25,552.066 1354.28,559.092 1362.92,559.092C1371.55,559.092 1378.58,552.066 1378.58,543.428C1378.58,534.79 1371.55,527.763 1362.92,527.763ZM1362.92,557.086C1355.38,557.086 1349.26,550.959 1349.26,543.428C1349.26,535.897 1355.38,529.77 1362.92,529.77C1370.45,529.77 1376.57,535.897 1376.57,543.428C1376.57,550.959 1370.45,557.086 1362.92,557.086ZM1357.58,555.156C1358.69,555.666 1359.88,556.011 1361.1,556.184L1361.66,552.247C1360.82,552.128 1360,551.889 1359.23,551.538L1357.58,555.156ZM1364.19,552.245L1364.76,556.18C1365.98,556.005 1367.16,555.657 1368.28,555.145L1366.62,551.53C1365.85,551.883 1365.03,552.124 1364.19,552.245ZM1355.43,548.254L1352.09,550.413C1352.76,551.444 1353.57,552.374 1354.49,553.176L1357.09,550.169C1356.45,549.613 1355.89,548.969 1355.43,548.254ZM1368.75,550.158L1371.36,553.159C1372.29,552.354 1373.09,551.422 1373.76,550.391L1370.41,548.24C1369.95,548.954 1369.39,549.599 1368.75,550.158ZM1367.27,541.727C1366.63,541.727 1366.08,542.082 1365.79,542.602L1363.74,542.602L1363.74,540.554C1364.26,540.262 1364.62,539.713 1364.62,539.075C1364.62,538.135 1363.86,537.373 1362.92,537.373C1361.98,537.373 1361.21,538.135 1361.21,539.075C1361.21,539.713 1361.57,540.262 1362.09,540.554L1362.09,542.602L1360.04,542.602C1359.75,542.082 1359.2,541.727 1358.56,541.727C1357.62,541.727 1356.86,542.488 1356.86,543.428C1356.86,544.367 1357.62,545.129 1358.56,545.129C1359.2,545.129 1359.75,544.774 1360.04,544.254L1362.09,544.254L1362.09,546.302C1361.57,546.593 1361.21,547.143 1361.21,547.781C1361.21,548.72 1361.98,549.482 1362.92,549.482C1363.86,549.482 1364.62,548.72 1364.62,547.781C1364.62,547.143 1364.26,546.593 1363.74,546.302L1363.74,544.254L1365.79,544.254C1366.08,544.774 1366.63,545.129 1367.27,545.129C1368.21,545.129 1368.97,544.367 1368.97,543.428C1368.97,542.488 1368.21,541.727 1367.27,541.727ZM1354.01,543.445L1350.03,543.454C1350.04,544.687 1350.21,545.907 1350.56,547.079L1354.37,545.955C1354.13,545.145 1354.01,544.3 1354.01,543.445ZM1371.82,543.384L1371.82,543.428C1371.82,544.282 1371.7,545.127 1371.46,545.938L1375.28,547.055C1375.63,545.881 1375.8,544.661 1375.8,543.393L1371.82,543.384ZM1355.41,538.631L1352.06,536.486C1351.4,537.523 1350.89,538.647 1350.54,539.826L1354.36,540.935C1354.6,540.122 1354.95,539.347 1355.41,538.631ZM1371.46,540.884L1375.27,539.752C1374.92,538.575 1374.4,537.454 1373.73,536.422L1370.39,538.587C1370.86,539.3 1371.21,540.073 1371.46,540.884ZM1359.19,535.332L1357.53,531.722C1356.42,532.235 1355.38,532.906 1354.45,533.713L1357.07,536.711C1357.71,536.151 1358.42,535.687 1359.19,535.332ZM1371.32,533.663C1370.39,532.86 1369.35,532.196 1368.23,531.689L1366.59,535.31C1367.36,535.66 1368.08,536.119 1368.73,536.676L1371.32,533.663ZM1362.91,534.52L1362.92,534.52C1363.33,534.52 1363.75,534.549 1364.16,534.606L1364.71,530.668C1364.12,530.586 1363.52,530.545 1362.92,530.545C1362.3,530.538 1361.66,530.589 1361.05,530.679L1361.62,534.613C1362.04,534.552 1362.48,534.52 1362.91,534.52Z" style="fill:url(#_Linear1);fill-rule:nonzero;"/>
    </g>
    <defs>
        <linearGradient id="_Linear1" x1="0" y1="0" x2="1" y2="0" gradientUnits="userSpaceOnUse" gradientTransform="matrix(2.67027e-15,43.6088,-43.6088,2.67027e-15,1231.03,528.391)"><stop offset="0" style="stop-color:rgb(210,153,62);stop-opacity:0.5"/><stop offset="1" style="stop-color:rgb(25,23,23);stop-opacity:0.5"/></linearGradient>
    </defs>
</svg>
