<svg xmlns="http://www.w3.org/2000/svg" xmlns:xlink="http://www.w3.org/1999/xlink" width="26.051" height="29.338" viewBox="0 0 26.051 29.338">
  <defs>
    <clipPath id="clip-path">
      <path id="路径_235" data-name="路径 235" d="M24.311-16.638h-.546a10.61,10.61,0,0,0-3.2-4.456l-.012-.052a3.092,3.092,0,0,1,.487-2.533A1.228,1.228,0,0,0,21.033-25a1.23,1.23,0,0,0-1.188-.557,5.94,5.94,0,0,0-3.239,1.366,3.406,3.406,0,0,0-1.065,1.755,8.773,8.773,0,0,1-8.553,6.732,8.71,8.71,0,0,1-5.347-1.814l-.5-.381-.263.568A9.515,9.515,0,0,0,0-13.313a9.522,9.522,0,0,0,.261,2.206l.015.067a9.65,9.65,0,0,0,.8,2.131,11.064,11.064,0,0,0,2.057,3.1,5.171,5.171,0,0,1,1.38,3.289l0,.383A1.173,1.173,0,0,0,5.677-1.05h4.04a1.166,1.166,0,0,0,1.165-1.165v-.439a13.46,13.46,0,0,0,2.209.033v.406A1.166,1.166,0,0,0,14.256-1.05h4.053a1.167,1.167,0,0,0,1.165-1.165V-3.2a3.477,3.477,0,0,1,1.2-2.415l.182-.155a10.585,10.585,0,0,0,2.983-4.387h.488a1.729,1.729,0,0,0,1.727-1.727V-14.92A1.754,1.754,0,0,0,24.311-16.638Zm-4.865,1.38a1,1,0,0,1-1-1,1,1,0,0,1,1-1,1,1,0,0,1,1,1A1,1,0,0,1,19.446-15.258ZM7.022-18.377a6,6,0,0,0,6-6,6.008,6.008,0,0,0-6-6.008,6,6,0,0,0-6,6A6.009,6.009,0,0,0,7.022-18.377Zm-2.042-3.7c.054-.193.106-.382.165-.576.067-.222.13-.246.334-.14a3.272,3.272,0,0,0,1.1.329,1.354,1.354,0,0,0,.72-.1.563.563,0,0,0,.136-.987,1.8,1.8,0,0,0-.412-.241,9.854,9.854,0,0,1-1.127-.5A1.594,1.594,0,0,1,5-25.813a1.673,1.673,0,0,1,1.223-1.553c.3-.111.3-.106.305-.421v-.319c0-.237.049-.276.281-.285h.217c.5,0,.5,0,.5.5,0,.353,0,.357.353.411a3.14,3.14,0,0,1,.78.232.233.233,0,0,1,.15.305c-.063.218-.122.435-.194.648s-.131.232-.324.14A2.487,2.487,0,0,0,7.055-26.4a.856.856,0,0,0-.328.068.468.468,0,0,0-.117.832,2.006,2.006,0,0,0,.537.3,10.008,10.008,0,0,1,.982.445,1.758,1.758,0,0,1,.566,2.67,1.873,1.873,0,0,1-.977.624.274.274,0,0,0-.237.31c.01.174,0,.344,0,.517a.215.215,0,0,1-.232.243c-.184,0-.373,0-.557,0a.226.226,0,0,1-.241-.257c0-.126,0-.252-.005-.377-.005-.276-.01-.291-.28-.334a3.39,3.39,0,0,1-.992-.285C4.937-21.755,4.913-21.818,4.98-22.074Z" fill="none"/>
    </clipPath>
    <linearGradient id="linear-gradient" x1="-0.514" y1="0.132" x2="0.684" y2="0.132" gradientUnits="objectBoundingBox">
      <stop offset="0" stop-color="#4e65ff"/>
      <stop offset="0.1" stop-color="#4e6bfe"/>
      <stop offset="0.2" stop-color="#4f72fe"/>
      <stop offset="0.3" stop-color="#5079fe"/>
      <stop offset="0.4" stop-color="#5180fe"/>
      <stop offset="0.5" stop-color="#5286fe"/>
      <stop offset="0.6" stop-color="#528dfd"/>
      <stop offset="0.7" stop-color="#5394fd"/>
      <stop offset="0.8" stop-color="#549bfd"/>
      <stop offset="0.9" stop-color="#55a2fd"/>
      <stop offset="1" stop-color="#56a8fd"/>
    </linearGradient>
  </defs>
  <g id="组_187" data-name="组 187" transform="translate(0 30.388)" clip-path="url(#clip-path)">
    <g id="组_186" data-name="组 186" transform="translate(18.446 15.612) rotate(-90)">
      <path id="路径_234" data-name="路径 234" d="M46-18.446V120.819H15.612V-18.446Z" fill="url(#linear-gradient)"/>
    </g>
  </g>
</svg>
