<?xml version="1.0" encoding="UTF-8" standalone="no"?>
<!DOCTYPE svg PUBLIC "-//W3C//DTD SVG 1.1//EN" "http://www.w3.org/Graphics/SVG/1.1/DTD/svg11.dtd">
<svg width="100%" height="100%" viewBox="0 0 31 31" version="1.1" xmlns="http://www.w3.org/2000/svg" xmlns:xlink="http://www.w3.org/1999/xlink" xml:space="preserve" xmlns:serif="http://www.serif.com/" style="fill-rule:evenodd;clip-rule:evenodd;stroke-linejoin:round;stroke-miterlimit:2;">
    <g transform="matrix(0.925977,0,0,0.925977,-1331.54,-424.618)">
        <path d="M1447.36,458.564C1450.9,458.641 1454.12,460.286 1456.63,462.701C1459.49,465.564 1461.26,469.661 1460.65,473.737C1460.66,473.839 1460.65,473.773 1460.67,473.933C1460.71,474.231 1460.78,474.565 1460.87,474.927C1461.13,475.966 1461.56,477.003 1462.17,477.967C1462.52,478.512 1462.93,479.017 1463.39,479.479L1463.41,479.496C1463.58,479.663 1463.74,479.831 1463.91,479.999L1464.91,481.005C1465.08,481.172 1465.25,481.34 1465.42,481.508C1466.64,482.731 1467.87,483.954 1469.09,485.178L1470.14,486.233C1470.54,486.629 1470.54,487.271 1470.14,487.668L1467.09,490.718C1466.7,491.114 1466.05,491.114 1465.66,490.718C1465.31,490.366 1464.95,490.015 1464.6,489.662C1463.87,488.927 1463.13,488.191 1462.4,487.456C1461.58,486.643 1460.77,485.831 1459.96,485.019L1458.9,483.963C1458.44,483.502 1457.94,483.099 1457.39,482.749C1456.43,482.132 1455.39,481.707 1454.35,481.445C1453.99,481.353 1453.66,481.289 1453.36,481.246C1453.2,481.225 1453.27,481.233 1453.16,481.222C1449.07,481.863 1445.01,480.034 1442.13,477.209C1437.31,472.39 1436.56,465.219 1440.6,461.176C1442.37,459.417 1444.53,458.679 1446.98,458.563L1447.32,458.563L1447.36,458.564ZM1460.93,483.119L1460.34,482.529C1459.77,481.963 1459.15,481.468 1458.49,481.042C1457.85,480.663 1457.2,480.298 1456.51,480.022C1457.11,479.66 1457.67,479.232 1458.16,478.734C1458.65,478.23 1459.1,477.686 1459.45,477.075C1459.75,477.759 1460.05,478.443 1460.47,479.061C1460.89,479.726 1461.39,480.346 1461.95,480.913L1462.54,481.503L1460.93,483.119ZM1453.43,479.102L1452.34,478.017L1454.17,476.183L1455.95,477.96C1455.22,478.529 1454.32,478.881 1453.43,479.102ZM1448.63,478.862C1447.74,478.596 1446.88,478.229 1446.09,477.733L1447.64,476.183L1449.47,478.017L1448.63,478.862ZM1450.91,476.582L1449.07,474.748L1450.91,472.914L1452.74,474.749L1450.91,476.582ZM1443.56,475.774C1443.22,475.429 1442.89,475.074 1442.59,474.691L1444.37,472.914L1446.2,474.748L1444.41,476.546C1444.12,476.299 1443.83,476.047 1443.56,475.774ZM1457.44,472.914L1458.53,474C1458.31,474.902 1457.95,475.78 1457.39,476.526L1455.61,474.749L1457.44,472.914ZM1454.17,469.646L1456.01,471.48L1454.17,473.314L1452.34,471.48L1454.17,469.646ZM1447.64,469.646L1449.47,471.48L1447.64,473.314L1445.8,471.48L1447.64,469.646ZM1441.44,472.976C1440.95,472.171 1440.63,471.275 1440.37,470.374L1441.1,469.646L1442.94,471.48L1441.44,472.976ZM1457.16,466.662C1457.64,467.457 1458.04,468.304 1458.29,469.201L1457.44,470.046L1455.61,468.212L1457.16,466.662ZM1449.07,468.212L1450.91,466.378L1452.74,468.212L1450.91,470.046L1449.07,468.212ZM1444.37,470.046L1442.54,468.212L1444.37,466.378L1446.2,468.212L1444.37,470.046ZM1465.37,468.704C1468.17,468.704 1470.44,466.433 1470.44,463.633C1470.39,461.849 1469.57,460.309 1468.06,459.339L1468.04,459.419C1467.96,459.836 1467.91,460.287 1467.91,460.753C1467.91,461.109 1467.97,461.354 1468.13,461.813C1468.13,461.829 1468.14,461.847 1468.14,461.871C1468.15,461.9 1468.16,461.916 1468.17,461.93C1468.41,462.625 1468.51,463.058 1468.51,463.721C1468.51,465.463 1467.03,466.856 1465.35,466.856C1463.7,466.856 1462.24,465.454 1462.24,463.721C1462.24,463 1462.34,462.534 1462.58,461.871C1462.58,461.865 1462.63,461.737 1462.64,461.702C1462.78,461.311 1462.83,461.088 1462.83,460.753C1462.83,460.287 1462.78,459.836 1462.69,459.419L1462.68,459.339C1461.18,460.35 1460.32,461.806 1460.3,463.633C1460.3,466.433 1462.57,468.704 1465.37,468.704ZM1441.38,463.384L1442.94,464.944L1441.1,466.778L1440.24,465.91C1440.46,465.008 1440.82,464.13 1441.38,463.384ZM1447.64,463.109L1449.47,464.944L1447.64,466.778L1445.8,464.944L1447.64,463.109ZM1455.2,464.136C1455.47,464.408 1455.73,464.683 1455.97,464.98L1454.17,466.778L1452.34,464.944L1454.12,463.169C1454.5,463.459 1454.85,463.798 1455.2,464.136ZM1465.35,465.334C1466.21,465.334 1466.98,464.602 1466.98,463.721C1466.98,463.261 1466.92,462.979 1466.73,462.43L1466.69,462.311C1466.48,461.706 1466.39,461.312 1466.39,460.753C1466.39,460.18 1466.45,459.63 1466.55,459.12C1466.58,458.987 1466.61,458.855 1466.64,458.724C1466.24,458.598 1465.79,458.574 1465.37,458.562C1464.94,458.573 1464.51,458.606 1464.1,458.724C1464.13,458.855 1464.16,458.987 1464.19,459.12C1464.29,459.63 1464.35,460.18 1464.35,460.753C1464.35,461.292 1464.26,461.675 1464.07,462.216C1464.06,462.255 1464.01,462.385 1464.01,462.389C1463.82,462.899 1463.76,463.202 1463.76,463.721C1463.76,464.597 1464.53,465.334 1465.35,465.334ZM1445.35,460.816L1446.2,461.675L1444.37,463.509L1442.82,461.957C1443.51,461.408 1444.49,461.022 1445.35,460.816ZM1449.8,460.949C1450.71,461.18 1451.58,461.548 1452.4,462.016L1450.91,463.509L1449.07,461.675L1449.8,460.949Z" style="fill:url(#_Linear1);fill-rule:nonzero;"/>
    </g>
    <defs>
        <linearGradient id="_Linear1" x1="0" y1="0" x2="1" y2="0" gradientUnits="userSpaceOnUse" gradientTransform="matrix(3.0013e-15,-49.0149,49.0149,3.0013e-15,1277.38,491.015)"><stop offset="0" style="stop-color:rgb(66,144,255);stop-opacity:0.75"/><stop offset="0.48" style="stop-color:rgb(156,211,253);stop-opacity:0.75"/><stop offset="1" style="stop-color:rgb(184,232,253);stop-opacity:0.75"/></linearGradient>
    </defs>
</svg>
