<svg xmlns="http://www.w3.org/2000/svg" xmlns:xlink="http://www.w3.org/1999/xlink" x="0px" y="0px" viewBox="0 0 16 16">
<linearGradient id="SVGID_1_" gradientUnits="userSpaceOnUse" x1="-50.8716" y1="88.4324" x2="-49.8716" y2="88.4324" gradientTransform="matrix(7.880330e-16 12.8695 12.8695 -7.880330e-16 -1130.0854 655.7381)">
	<stop offset="0" style="stop-color:#8AD1FD"/>
	<stop offset="1" style="stop-color:#458EFF"/>
</linearGradient>
<path fill="url(#SVGID_1_)" d="M7.2,7.2V12h1.6V7.2H7.2z M7.2,4v1.6h1.6V4H7.2z M8,0c2.2,0,4.1,0.8,5.7,2.3S16,5.8,16,8s-0.8,4.1-2.3,5.7
	S10.2,16,8,16s-4.1-0.8-5.7-2.3S0,10.2,0,8s0.8-4.1,2.3-5.7S5.8,0,8,0z"/>
</svg>
