<svg viewBox="0 0 18 15" xmlns="http://www.w3.org/2000/svg" xmlns:xlink="http://www.w3.org/1999/xlink" fill="currentColor">
    <g transform="matrix(0.0401786,0,0,0.0401786,0,-2.57143)">
        <path d="M448,177.5L448,376C448,398 430,416 408,416L40,416C18,416 0,398 0,376L0,177.5C7.5,185.75 16,193 25.25,199.25C66.75,227.5 108.75,255.75 149.5,285.5C170.5,301 196.5,320 223.75,320L224.25,320C251.5,320 277.5,301 298.5,285.5C339.25,256 381.25,227.5 423,199.25C432,193 440.5,185.75 448,177.5ZM448,104C448,132 427.25,157.25 405.25,172.5C366.25,199.5 327,226.5 288.25,253.75C272,265 244.5,288 224.25,288L223.75,288C203.5,288 176,265 159.75,253.75C121,226.5 81.75,199.5 43,172.5C25.25,160.5 0,132.25 0,109.5C0,85 13.25,64 40,64L408,64C429.75,64 448,82 448,104Z" />
    </g>
</svg>
