<svg xmlns="http://www.w3.org/2000/svg" xmlns:xlink="http://www.w3.org/1999/xlink" width="130" height="150" viewBox="0 0 130 150">
<style type="text/css">
	.st0{opacity:0.74;}
	.st1{clip-path:url(#SVGID_2_);fill:#FDFDFD;}
	.st2{clip-path:url(#SVGID_2_);fill:#FCFCFC;}
	.st3{clip-path:url(#SVGID_2_);fill:#FBFBFB;}
	.st4{clip-path:url(#SVGID_2_);fill:#FAFAFA;}
	.st5{clip-path:url(#SVGID_2_);fill:#F9F9F9;}
	.st6{clip-path:url(#SVGID_2_);fill:#F8F8F8;}
	.st7{clip-path:url(#SVGID_2_);fill:#F7F7F7;}
	.st8{clip-path:url(#SVGID_2_);fill:#F6F6F6;}
	.st9{clip-path:url(#SVGID_2_);fill:#F5F5F5;}
	.st10{clip-path:url(#SVGID_2_);fill:#F4F4F4;}
	.st11{clip-path:url(#SVGID_2_);fill:#F3F3F3;}
	.st12{clip-path:url(#SVGID_2_);fill:#F2F2F2;}
	.st13{clip-path:url(#SVGID_2_);fill:#F1F1F1;}
	.st14{clip-path:url(#SVGID_2_);fill:#F0F0F0;}
	.st15{clip-path:url(#SVGID_2_);fill:#EFEFEF;}
	.st16{clip-path:url(#SVGID_2_);fill:#EEEEEE;}
	.st17{clip-path:url(#SVGID_2_);fill:#EDEDED;}
	.st18{clip-path:url(#SVGID_2_);fill:#ECECEC;}
	.st19{clip-path:url(#SVGID_2_);fill:#EBEBEB;}
	.st20{clip-path:url(#SVGID_2_);fill:#EAEAEA;}
	.st21{clip-path:url(#SVGID_2_);fill:#E8E8E8;}
	.st22{clip-path:url(#SVGID_2_);fill:#E7E7E7;}
	.st23{clip-path:url(#SVGID_2_);fill:#E6E6E6;}
	.st24{clip-path:url(#SVGID_2_);fill:#E5E5E5;}
	.st25{clip-path:url(#SVGID_2_);fill:#E4E4E4;}
	.st26{clip-path:url(#SVGID_2_);fill:#E3E3E3;}
	.st27{clip-path:url(#SVGID_2_);fill:#E2E2E2;}
	.st28{clip-path:url(#SVGID_2_);fill:#E1E1E1;}
	.st29{clip-path:url(#SVGID_2_);fill:#E0E0E0;}
	.st30{clip-path:url(#SVGID_2_);fill:#DFDFDF;}
	.st31{clip-path:url(#SVGID_2_);fill:#DEDEDE;}
	.st32{clip-path:url(#SVGID_2_);fill:#DDDDDD;}
	.st33{clip-path:url(#SVGID_2_);fill:#DCDCDC;}
	.st34{clip-path:url(#SVGID_2_);fill:#DBDBDB;}
	.st35{clip-path:url(#SVGID_2_);fill:#DADADA;}
	.st36{clip-path:url(#SVGID_2_);fill:#D9D9D9;}
	.st37{clip-path:url(#SVGID_2_);fill:#D8D8D8;}
	.st38{clip-path:url(#SVGID_2_);fill:#D7D7D7;}
	.st39{opacity:0.53;enable-background:new    ;}
	.st40{clip-path:url(#SVGID_4_);fill:#FDFDFD;}
	.st41{clip-path:url(#SVGID_4_);fill:#FCFCFC;}
	.st42{clip-path:url(#SVGID_4_);fill:#FBFBFB;}
	.st43{clip-path:url(#SVGID_4_);fill:#FAFAFA;}
	.st44{clip-path:url(#SVGID_4_);fill:#F9F9F9;}
	.st45{clip-path:url(#SVGID_4_);fill:#F8F8F8;}
	.st46{clip-path:url(#SVGID_4_);fill:#F7F7F7;}
	.st47{clip-path:url(#SVGID_4_);fill:#F6F6F6;}
	.st48{clip-path:url(#SVGID_4_);fill:#F5F5F5;}
	.st49{clip-path:url(#SVGID_4_);fill:#F4F4F4;}
	.st50{clip-path:url(#SVGID_4_);fill:#F3F3F3;}
	.st51{clip-path:url(#SVGID_4_);fill:#F2F2F2;}
	.st52{clip-path:url(#SVGID_4_);fill:#F1F1F1;}
	.st53{clip-path:url(#SVGID_4_);fill:#F0F0F0;}
	.st54{clip-path:url(#SVGID_4_);fill:#EFEFEF;}
	.st55{clip-path:url(#SVGID_4_);fill:#EEEEEE;}
	.st56{clip-path:url(#SVGID_4_);fill:#EDEDED;}
	.st57{clip-path:url(#SVGID_4_);fill:#ECECEC;}
	.st58{clip-path:url(#SVGID_4_);fill:#EBEBEB;}
	.st59{clip-path:url(#SVGID_4_);fill:#EAEAEA;}
	.st60{clip-path:url(#SVGID_4_);fill:#E9E9E9;}
	.st61{clip-path:url(#SVGID_4_);fill:#E8E8E8;}
	.st62{clip-path:url(#SVGID_4_);fill:#E7E7E7;}
	.st63{clip-path:url(#SVGID_4_);fill:#E6E6E6;}
	.st64{clip-path:url(#SVGID_4_);fill:#E4E4E4;}
	.st65{clip-path:url(#SVGID_4_);fill:#E3E3E3;}
	.st66{clip-path:url(#SVGID_4_);fill:#E2E2E2;}
	.st67{clip-path:url(#SVGID_4_);fill:#E1E1E1;}
	.st68{clip-path:url(#SVGID_4_);fill:#E0E0E0;}
	.st69{clip-path:url(#SVGID_4_);fill:#DFDFDF;}
	.st70{clip-path:url(#SVGID_4_);fill:#DEDEDE;}
	.st71{clip-path:url(#SVGID_4_);fill:#DDDDDD;}
	.st72{clip-path:url(#SVGID_4_);fill:#DCDCDC;}
	.st73{clip-path:url(#SVGID_4_);fill:#DBDBDB;}
	.st74{clip-path:url(#SVGID_4_);fill:#DADADA;}
	.st75{clip-path:url(#SVGID_4_);fill:#D9D9D9;}
	.st76{clip-path:url(#SVGID_4_);fill:#D8D8D8;}
	.st77{clip-path:url(#SVGID_4_);fill:#D7D7D7;}
	.st78{clip-path:url(#SVGID_4_);fill:#D6D6D6;}
	.st79{clip-path:url(#SVGID_4_);fill:#D5D5D5;}
	.st80{clip-path:url(#SVGID_4_);fill:#D4D4D4;}
	.st81{clip-path:url(#SVGID_4_);fill:#D3D3D3;}
	.st82{clip-path:url(#SVGID_4_);fill:#D2D2D2;}
	.st83{clip-path:url(#SVGID_4_);fill:#D1D1D1;}
	.st84{clip-path:url(#SVGID_4_);fill:#D0D0D0;}
	.st85{opacity:0.34;enable-background:new    ;}
	.st86{clip-path:url(#SVGID_6_);fill:#FDFDFD;}
	.st87{clip-path:url(#SVGID_6_);fill:#FCFCFC;}
	.st88{clip-path:url(#SVGID_6_);fill:#FBFBFB;}
	.st89{clip-path:url(#SVGID_6_);fill:#FAFAFA;}
	.st90{clip-path:url(#SVGID_6_);fill:#F9F9F9;}
	.st91{clip-path:url(#SVGID_6_);fill:#F8F8F8;}
	.st92{clip-path:url(#SVGID_6_);fill:#F7F7F7;}
	.st93{clip-path:url(#SVGID_6_);fill:#F6F6F6;}
	.st94{clip-path:url(#SVGID_6_);fill:#F5F5F5;}
	.st95{clip-path:url(#SVGID_6_);fill:#F4F4F4;}
	.st96{clip-path:url(#SVGID_6_);fill:#F3F3F3;}
	.st97{clip-path:url(#SVGID_6_);fill:#F2F2F2;}
	.st98{clip-path:url(#SVGID_6_);fill:#F1F1F1;}
	.st99{clip-path:url(#SVGID_6_);fill:#F0F0F0;}
	.st100{clip-path:url(#SVGID_6_);fill:#EFEFEF;}
	.st101{clip-path:url(#SVGID_6_);fill:#EEEEEE;}
	.st102{clip-path:url(#SVGID_6_);fill:#EDEDED;}
	.st103{clip-path:url(#SVGID_6_);fill:#ECECEC;}
	.st104{clip-path:url(#SVGID_6_);fill:#EBEBEB;}
	.st105{clip-path:url(#SVGID_6_);fill:#EAEAEA;}
	.st106{clip-path:url(#SVGID_6_);fill:#E9E9E9;}
	.st107{clip-path:url(#SVGID_6_);fill:#E8E8E8;}
	.st108{clip-path:url(#SVGID_6_);fill:#E7E7E7;}
	.st109{clip-path:url(#SVGID_6_);fill:#E6E6E6;}
	.st110{clip-path:url(#SVGID_6_);fill:#E4E4E4;}
	.st111{clip-path:url(#SVGID_6_);fill:#E3E3E3;}
	.st112{clip-path:url(#SVGID_6_);fill:#E2E2E2;}
	.st113{clip-path:url(#SVGID_6_);fill:#E1E1E1;}
	.st114{clip-path:url(#SVGID_6_);fill:#E0E0E0;}
	.st115{clip-path:url(#SVGID_6_);fill:#DFDFDF;}
	.st116{clip-path:url(#SVGID_6_);fill:#DEDEDE;}
	.st117{clip-path:url(#SVGID_6_);fill:#DDDDDD;}
	.st118{clip-path:url(#SVGID_6_);fill:#DCDCDC;}
	.st119{clip-path:url(#SVGID_6_);fill:#DBDBDB;}
	.st120{clip-path:url(#SVGID_6_);fill:#DADADA;}
	.st121{clip-path:url(#SVGID_6_);fill:#D9D9D9;}
	.st122{clip-path:url(#SVGID_6_);fill:#D8D8D8;}
	.st123{clip-path:url(#SVGID_6_);fill:#D7D7D7;}
	.st124{clip-path:url(#SVGID_6_);fill:#D6D6D6;}
	.st125{clip-path:url(#SVGID_6_);fill:#D5D5D5;}
	.st126{clip-path:url(#SVGID_6_);fill:#D4D4D4;}
	.st127{clip-path:url(#SVGID_6_);fill:#D3D3D3;}
	.st128{clip-path:url(#SVGID_6_);fill:#D2D2D2;}
	.st129{clip-path:url(#SVGID_6_);fill:#D1D1D1;}
	.st130{clip-path:url(#SVGID_6_);fill:#D0D0D0;}
	.st131{fill:#7F85FC;}
	.st132{fill:#F4D01E;}
	.st133{fill:#FF8C00;}
	.st134{fill:#6762FF;}
	.st135{fill:#FFFFFF;}
	.st136{fill:#CCDCFF;}
	.st137{fill:#B3C6F3;}
</style>
<g id="组_974_1_" transform="translate(42 -294)">
	<g id="组_872_1_" transform="translate(-6 -43)">
		<g id="组_858-2_1_" class="st0">
			<g id="椭圆_64-2_1_">
				<g>
					<defs>
						<circle id="SVGID_1_" cx="43.8" cy="418.3" r="50.2"/>
					</defs>
					<clipPath id="SVGID_2_">
						<use xlink:href="#SVGID_1_"  style="overflow:visible;"/>
					</clipPath>
					<polygon class="st1" points="5.4,368.1 -6.4,369.8 -6.4,368.1 					"/>
					<polygon class="st2" points="27,368.1 -6.4,372.9 -6.4,369.8 5.4,368.1 					"/>
					<polygon class="st3" points="48.6,368.1 -6.4,376.1 -6.4,372.9 27,368.1 					"/>
					<polygon class="st4" points="70.3,368.1 -6.4,379.2 -6.4,376.1 48.6,368.1 					"/>
					<polygon class="st5" points="91.9,368.1 -6.4,382.3 -6.4,379.2 70.3,368.1 					"/>
					<polygon class="st6" points="94,370.9 -6.4,385.4 -6.4,382.3 91.9,368.1 94,368.1 					"/>
					<polygon class="st7" points="94,374.1 -6.4,388.5 -6.4,385.4 94,370.9 					"/>
					<polygon class="st8" points="94,377.2 -6.4,391.6 -6.4,388.5 94,374.1 					"/>
					<polygon class="st9" points="94,380.3 -6.4,394.7 -6.4,391.6 94,377.2 					"/>
					<polygon class="st10" points="94,383.4 -6.4,397.9 -6.4,394.7 94,380.3 					"/>
					<polygon class="st11" points="94,386.5 -6.4,401 -6.4,397.9 94,383.4 					"/>
					<polygon class="st12" points="94,389.6 -6.4,404.1 -6.4,401 94,386.5 					"/>
					<polygon class="st13" points="94,392.7 -6.4,407.2 -6.4,404.1 94,389.6 					"/>
					<polygon class="st14" points="94,395.8 -6.4,410.3 -6.4,407.2 94,392.7 					"/>
					<polygon class="st15" points="94,399 -6.4,413.4 -6.4,410.3 94,395.8 					"/>
					<polygon class="st16" points="94,402.1 -6.4,416.5 -6.4,413.4 94,399 					"/>
					<polygon class="st17" points="94,405.2 -6.4,419.6 -6.4,416.5 94,402.1 					"/>
					<polygon class="st18" points="94,408.3 -6.4,422.8 -6.4,419.6 94,405.2 					"/>
					<polygon class="st19" points="94,411.4 -6.4,425.9 -6.4,422.8 94,408.3 					"/>
					<polygon class="st20" points="94,414.5 -6.4,429 -6.4,425.9 94,411.4 					"/>
					<polygon class="st21" points="94,417.6 -6.4,432.1 -6.4,429 94,414.5 					"/>
					<polygon class="st22" points="94,420.8 -6.4,435.2 -6.4,432.1 94,417.6 					"/>
					<polygon class="st23" points="94,423.9 -6.4,438.3 -6.4,435.2 94,420.8 					"/>
					<polygon class="st24" points="94,427 -6.4,441.4 -6.4,438.3 94,423.9 					"/>
					<polygon class="st25" points="94,430.1 -6.4,444.5 -6.4,441.4 94,427 					"/>
					<polygon class="st26" points="94,433.2 -6.4,447.7 -6.4,444.5 94,430.1 					"/>
					<polygon class="st27" points="94,436.3 -6.4,450.8 -6.4,447.7 94,433.2 					"/>
					<polygon class="st28" points="94,439.4 -6.4,453.9 -6.4,450.8 94,436.3 					"/>
					<polygon class="st29" points="94,442.5 -6.4,457 -6.4,453.9 94,439.4 					"/>
					<polygon class="st30" points="94,445.7 -6.4,460.1 -6.4,457 94,442.5 					"/>
					<polygon class="st31" points="94,448.8 -6.4,463.2 -6.4,460.1 94,445.7 					"/>
					<polygon class="st32" points="94,451.9 -6.4,466.3 -6.4,463.2 94,448.8 					"/>
					<polygon class="st33" points="94,455 -0.2,468.5 -6.4,468.5 -6.4,466.3 94,451.9 					"/>
					<polygon class="st34" points="94,458.1 21.5,468.5 -0.2,468.5 94,455 					"/>
					<polygon class="st35" points="94,461.2 43.1,468.5 21.5,468.5 94,458.1 					"/>
					<polygon class="st36" points="94,464.3 64.7,468.5 43.1,468.5 94,461.2 					"/>
					<polygon class="st37" points="94,467.4 86.3,468.5 64.7,468.5 94,464.3 					"/>
					<polygon class="st38" points="86.3,468.5 94,467.4 94,468.5 					"/>
				</g>
			</g>
			<g id="椭圆_65-2_1_" class="st39">
				<g>
					<defs>
						<circle id="SVGID_3_" cx="17.4" cy="433.1" r="53.4"/>
					</defs>
					<clipPath id="SVGID_4_">
						<use xlink:href="#SVGID_3_"  style="overflow:visible;"/>
					</clipPath>
					<polygon class="st40" points="-34.3,379.8 -36,380 -36,379.8 					"/>
					<polygon class="st41" points="-14.9,379.8 -36,382.8 -36,380 -34.3,379.8 					"/>
					<polygon class="st42" points="4.5,379.8 -36,385.6 -36,382.8 -14.9,379.8 					"/>
					<polygon class="st43" points="23.9,379.8 -36,388.4 -36,385.6 4.5,379.8 					"/>
					<polygon class="st44" points="43.3,379.8 -36,391.2 -36,388.4 23.9,379.8 					"/>
					<polygon class="st45" points="62.6,379.8 -36,394 -36,391.2 43.3,379.8 					"/>
					<polygon class="st46" points="70.7,381.4 -36,396.8 -36,394 62.6,379.8 70.7,379.8 					"/>
					<polygon class="st47" points="70.7,384.2 -36,399.5 -36,396.8 70.7,381.4 					"/>
					<polygon class="st48" points="70.7,387 -36,402.3 -36,399.5 70.7,384.2 					"/>
					<polygon class="st49" points="70.7,389.8 -36,405.1 -36,402.3 70.7,387 					"/>
					<polygon class="st50" points="70.7,392.5 -36,407.9 -36,405.1 70.7,389.8 					"/>
					<polygon class="st51" points="70.7,395.3 -36,410.7 -36,407.9 70.7,392.5 					"/>
					<polygon class="st52" points="70.7,398.1 -36,413.5 -36,410.7 70.7,395.3 					"/>
					<polygon class="st53" points="70.7,400.9 -36,416.3 -36,413.5 70.7,398.1 					"/>
					<polygon class="st54" points="70.7,403.7 -36,419.1 -36,416.3 70.7,400.9 					"/>
					<polygon class="st55" points="70.7,406.5 -36,421.9 -36,419.1 70.7,403.7 					"/>
					<polygon class="st56" points="70.7,409.3 -36,424.7 -36,421.9 70.7,406.5 					"/>
					<polygon class="st57" points="70.7,412.1 -36,427.4 -36,424.7 70.7,409.3 					"/>
					<polygon class="st58" points="70.7,414.9 -36,430.2 -36,427.4 70.7,412.1 					"/>
					<polygon class="st59" points="70.7,417.7 -36,433 -36,430.2 70.7,414.9 					"/>
					<polygon class="st60" points="70.7,420.5 -36,435.8 -36,433 70.7,417.7 					"/>
					<polygon class="st61" points="70.7,423.2 -36,438.6 -36,435.8 70.7,420.5 					"/>
					<polygon class="st62" points="70.7,426 -36,441.4 -36,438.6 70.7,423.2 					"/>
					<polygon class="st63" points="70.7,428.8 -36,444.2 -36,441.4 70.7,426 					"/>
					<polygon class="st64" points="70.7,431.6 -36,447 -36,444.2 70.7,428.8 					"/>
					<polygon class="st65" points="70.7,434.4 -36,449.8 -36,447 70.7,431.6 					"/>
					<polygon class="st66" points="70.7,437.2 -36,452.6 -36,449.8 70.7,434.4 					"/>
					<polygon class="st67" points="70.7,440 -36,455.3 -36,452.6 70.7,437.2 					"/>
					<polygon class="st68" points="70.7,442.8 -36,458.1 -36,455.3 70.7,440 					"/>
					<polygon class="st69" points="70.7,445.6 -36,460.9 -36,458.1 70.7,442.8 					"/>
					<polygon class="st70" points="70.7,448.4 -36,463.7 -36,460.9 70.7,445.6 					"/>
					<polygon class="st71" points="70.7,451.1 -36,466.5 -36,463.7 70.7,448.4 					"/>
					<polygon class="st72" points="70.7,453.9 -36,469.3 -36,466.5 70.7,451.1 					"/>
					<polygon class="st73" points="70.7,456.7 -36,472.1 -36,469.3 70.7,453.9 					"/>
					<polygon class="st74" points="70.7,459.5 -36,474.9 -36,472.1 70.7,456.7 					"/>
					<polygon class="st75" points="70.7,462.3 -36,477.7 -36,474.9 70.7,459.5 					"/>
					<polygon class="st76" points="70.7,465.1 -36,480.5 -36,477.7 70.7,462.3 					"/>
					<polygon class="st77" points="70.7,467.9 -36,483.3 -36,480.5 70.7,465.1 					"/>
					<polygon class="st78" points="70.7,470.7 -36,486 -36,483.3 70.7,467.9 					"/>
					<polygon class="st79" points="70.7,473.5 -19.9,486.5 -36,486.5 -36,486 70.7,470.7 					"/>
					<polygon class="st80" points="70.7,476.3 -0.5,486.5 -19.9,486.5 70.7,473.5 					"/>
					<polygon class="st81" points="70.7,479 18.9,486.5 -0.5,486.5 70.7,476.3 					"/>
					<polygon class="st82" points="70.7,481.8 38.3,486.5 18.9,486.5 70.7,479 					"/>
					<polygon class="st83" points="70.7,484.6 57.6,486.5 38.3,486.5 70.7,481.8 					"/>
					<polygon class="st84" points="57.6,486.5 70.7,484.6 70.7,486.5 					"/>
				</g>
			</g>
			<g id="椭圆_66-2_1_" class="st85">
				<g>
					<defs>
						<circle id="SVGID_5_" cx="9.4" cy="377.7" r="40.2"/>
					</defs>
					<clipPath id="SVGID_6_">
						<use xlink:href="#SVGID_5_"  style="overflow:visible;"/>
					</clipPath>
					<polygon class="st86" points="-29.4,337.5 -30.7,337.7 -30.7,337.5 					"/>
					<polygon class="st87" points="-14.8,337.5 -30.7,339.8 -30.7,337.7 -29.4,337.5 					"/>
					<polygon class="st88" points="-0.2,337.5 -30.7,341.9 -30.7,339.8 -14.8,337.5 					"/>
					<polygon class="st89" points="14.3,337.5 -30.7,344 -30.7,341.9 -0.2,337.5 					"/>
					<polygon class="st90" points="28.9,337.5 -30.7,346.1 -30.7,344 14.3,337.5 					"/>
					<polygon class="st91" points="43.5,337.5 -30.7,348.2 -30.7,346.1 28.9,337.5 					"/>
					<polygon class="st92" points="49.6,338.7 -30.7,350.3 -30.7,348.2 43.5,337.5 49.6,337.5 					"/>
					<polygon class="st93" points="49.6,340.8 -30.7,352.4 -30.7,350.3 49.6,338.7 					"/>
					<polygon class="st94" points="49.6,342.9 -30.7,354.5 -30.7,352.4 49.6,340.8 					"/>
					<polygon class="st95" points="49.6,345 -30.7,356.6 -30.7,354.5 49.6,342.9 					"/>
					<polygon class="st96" points="49.6,347.1 -30.7,358.7 -30.7,356.6 49.6,345 					"/>
					<polygon class="st97" points="49.6,349.2 -30.7,360.8 -30.7,358.7 49.6,347.1 					"/>
					<polygon class="st98" points="49.6,351.3 -30.7,362.9 -30.7,360.8 49.6,349.2 					"/>
					<polygon class="st99" points="49.6,353.4 -30.7,365 -30.7,362.9 49.6,351.3 					"/>
					<polygon class="st100" points="49.6,355.5 -30.7,367.1 -30.7,365 49.6,353.4 					"/>
					<polygon class="st101" points="49.6,357.6 -30.7,369.2 -30.7,367.1 49.6,355.5 					"/>
					<polygon class="st102" points="49.6,359.7 -30.7,371.3 -30.7,369.2 49.6,357.6 					"/>
					<polygon class="st103" points="49.6,361.8 -30.7,373.4 -30.7,371.3 49.6,359.7 					"/>
					<polygon class="st104" points="49.6,363.9 -30.7,375.5 -30.7,373.4 49.6,361.8 					"/>
					<polygon class="st105" points="49.6,366 -30.7,377.6 -30.7,375.5 49.6,363.9 					"/>
					<polygon class="st106" points="49.6,368.1 -30.7,379.7 -30.7,377.6 49.6,366 					"/>
					<polygon class="st107" points="49.6,370.2 -30.7,381.8 -30.7,379.7 49.6,368.1 					"/>
					<polygon class="st108" points="49.6,372.3 -30.7,383.9 -30.7,381.8 49.6,370.2 					"/>
					<polygon class="st109" points="49.6,374.4 -30.7,386 -30.7,383.9 49.6,372.3 					"/>
					<polygon class="st110" points="49.6,376.5 -30.7,388.1 -30.7,386 49.6,374.4 					"/>
					<polygon class="st111" points="49.6,378.6 -30.7,390.2 -30.7,388.1 49.6,376.5 					"/>
					<polygon class="st112" points="49.6,380.7 -30.7,392.3 -30.7,390.2 49.6,378.6 					"/>
					<polygon class="st113" points="49.6,382.8 -30.7,394.4 -30.7,392.3 49.6,380.7 					"/>
					<polygon class="st114" points="49.6,384.9 -30.7,396.5 -30.7,394.4 49.6,382.8 					"/>
					<polygon class="st115" points="49.6,387 -30.7,398.6 -30.7,396.5 49.6,384.9 					"/>
					<polygon class="st116" points="49.6,389.1 -30.7,400.7 -30.7,398.6 49.6,387 					"/>
					<polygon class="st117" points="49.6,391.2 -30.7,402.8 -30.7,400.7 49.6,389.1 					"/>
					<polygon class="st118" points="49.6,393.3 -30.7,404.9 -30.7,402.8 49.6,391.2 					"/>
					<polygon class="st119" points="49.6,395.4 -30.7,407 -30.7,404.9 49.6,393.3 					"/>
					<polygon class="st120" points="49.6,397.5 -30.7,409.1 -30.7,407 49.6,395.4 					"/>
					<polygon class="st121" points="49.6,399.6 -30.7,411.2 -30.7,409.1 49.6,397.5 					"/>
					<polygon class="st122" points="49.6,401.7 -30.7,413.3 -30.7,411.2 49.6,399.6 					"/>
					<polygon class="st123" points="49.6,403.8 -30.7,415.4 -30.7,413.3 49.6,401.7 					"/>
					<polygon class="st124" points="49.6,405.9 -30.7,417.5 -30.7,415.4 49.6,403.8 					"/>
					<polygon class="st125" points="49.6,408 -18.6,417.8 -30.7,417.8 -30.7,417.5 49.6,405.9 					"/>
					<polygon class="st126" points="49.6,410.1 -4,417.8 -18.6,417.8 49.6,408 					"/>
					<polygon class="st127" points="49.6,412.2 10.6,417.8 -4,417.8 49.6,410.1 					"/>
					<polygon class="st128" points="49.6,414.3 25.2,417.8 10.6,417.8 49.6,412.2 					"/>
					<polygon class="st129" points="49.6,416.4 39.8,417.8 25.2,417.8 49.6,414.3 					"/>
					<polygon class="st130" points="39.8,417.8 49.6,416.4 49.6,417.8 					"/>
				</g>
			</g>
		</g>
	</g>
	<g id="组_928_1_" transform="translate(110 287)">
		<g id="组_913_1_" transform="translate(22 22)">
			<g id="路径_718_1_">
				<path class="st131" d="M-60.1,85.9c-2.5,0-4.6-2.1-4.6-4.6c0-2.5,2.1-4.6,4.6-4.6c2.5,0,4.6,2.1,4.6,4.6l0,0
					C-55.5,83.9-57.5,85.9-60.1,85.9z M-60.1,78.6c-1.5,0-2.8,1.2-2.8,2.8c0,1.5,1.2,2.8,2.8,2.8c1.5,0,2.8-1.2,2.8-2.8
					C-57.3,79.8-58.6,78.6-60.1,78.6z"/>
			</g>
			<g id="路径_719_1_">
				<path class="st132" d="M-144.7,28.9c-2.5,0-4.6-2.1-4.6-4.6s2.1-4.6,4.6-4.6c2.5,0,4.6,2.1,4.6,4.6v0
					C-140.1,26.9-142.1,28.9-144.7,28.9z M-144.7,21.6c-1.5,0-2.8,1.2-2.8,2.8c0,1.5,1.2,2.8,2.8,2.8s2.8-1.2,2.8-2.8
					C-141.9,22.8-143.1,21.6-144.7,21.6z"/>
			</g>
			<g id="路径_720_1_">
				<path class="st132" d="M-50.3,68.8c-0.2-0.1-1.2-0.6-1.4-0.8c-0.3-0.1-0.5-0.4-0.6-0.6c-0.1-0.3-0.7-1.2-0.8-1.4
					c-0.2-0.3-0.5-0.4-0.8-0.2c-0.1,0.1-0.2,0.1-0.2,0.2c-0.1,0.2-0.6,1.2-0.8,1.4c-0.1,0.3-0.4,0.5-0.6,0.6
					c-0.3,0.1-1.2,0.7-1.4,0.8c-0.3,0.2-0.4,0.5-0.2,0.8c0.1,0.1,0.1,0.2,0.2,0.2c0.2,0.1,1.2,0.6,1.4,0.8c0.3,0.1,0.5,0.4,0.6,0.6
					c0.1,0.3,0.7,1.2,0.8,1.4c0.2,0.3,0.5,0.4,0.8,0.2c0.1-0.1,0.2-0.1,0.2-0.2c0.1-0.2,0.6-1.2,0.8-1.4c0.1-0.3,0.4-0.5,0.6-0.6
					c0.3-0.1,1.2-0.7,1.4-0.8c0.3-0.2,0.4-0.5,0.2-0.8C-50.1,69-50.2,68.9-50.3,68.8z"/>
			</g>
			<g id="路径_721_1_">
				<path class="st131" d="M-151.4,48.6c-0.2-0.1-1.2-0.6-1.4-0.8c-0.3-0.1-0.5-0.4-0.6-0.6c-0.1-0.3-0.7-1.2-0.8-1.4
					c-0.2-0.3-0.5-0.4-0.8-0.2c-0.1,0.1-0.2,0.1-0.2,0.2c-0.1,0.2-0.6,1.2-0.8,1.4c-0.1,0.3-0.4,0.5-0.6,0.6
					c-0.3,0.1-1.2,0.7-1.4,0.8c-0.3,0.2-0.4,0.5-0.2,0.8c0.1,0.1,0.1,0.2,0.2,0.2c0.2,0.1,1.2,0.6,1.4,0.8c0.3,0.1,0.5,0.4,0.6,0.6
					c0.1,0.3,0.7,1.2,0.8,1.4c0.2,0.3,0.5,0.4,0.8,0.2c0.1-0.1,0.2-0.1,0.2-0.2c0.1-0.2,0.6-1.2,0.8-1.4c0.1-0.3,0.4-0.5,0.6-0.6
					c0.3-0.1,1.2-0.7,1.4-0.8c0.3-0.2,0.4-0.5,0.2-0.8C-151.2,48.8-151.3,48.7-151.4,48.6z"/>
			</g>
			<g id="路径_722_1_">
				<path class="st133" d="M-87,9.2L-88,8.6c-0.2-0.1-0.4-0.3-0.5-0.5C-88.6,8-89,7.2-89.1,7.1c-0.1-0.2-0.4-0.3-0.6-0.2
					c-0.1,0-0.1,0.1-0.2,0.2C-90,7.2-90.4,8-90.5,8.2c-0.1,0.2-0.3,0.4-0.5,0.5L-92,9.2c-0.2,0.1-0.3,0.4-0.2,0.6
					c0,0.1,0.1,0.1,0.2,0.2l1.1,0.6c0.2,0.1,0.4,0.3,0.5,0.5c0.1,0.2,0.5,0.9,0.6,1.1c0.1,0.2,0.4,0.3,0.6,0.2
					c0.1,0,0.1-0.1,0.2-0.2c0.1-0.1,0.5-0.9,0.6-1.1c0.1-0.2,0.3-0.4,0.5-0.5L-87,10c0.2-0.1,0.3-0.4,0.2-0.6
					C-86.8,9.3-86.9,9.3-87,9.2z"/>
			</g>
			<g id="路径_723_1_">
				<path class="st132" d="M-140.3,108.5c-0.1-0.1-0.9-0.5-1.1-0.6c-0.2-0.1-0.4-0.3-0.5-0.5c-0.1-0.2-0.5-0.9-0.6-1.1
					c-0.1-0.2-0.4-0.3-0.6-0.2c-0.1,0-0.1,0.1-0.2,0.2c-0.1,0.1-0.5,0.9-0.6,1.1c-0.1,0.2-0.3,0.4-0.5,0.5c-0.2,0.1-0.9,0.5-1.1,0.6
					c-0.2,0.1-0.3,0.4-0.2,0.6c0,0.1,0.1,0.1,0.2,0.2c0.1,0.1,0.9,0.5,1.1,0.6c0.2,0.1,0.4,0.3,0.5,0.5c0.1,0.2,0.5,0.9,0.6,1.1
					c0.1,0.2,0.4,0.3,0.6,0.2c0.1,0,0.1-0.1,0.2-0.2c0.1-0.1,0.5-0.9,0.6-1.1c0.1-0.2,0.3-0.4,0.5-0.5c0.2-0.1,0.9-0.5,1.1-0.6
					c0.2-0.1,0.3-0.4,0.2-0.6C-140.2,108.6-140.2,108.6-140.3,108.5z"/>
			</g>
			<g id="路径_724_1_">
				<path class="st133" d="M-103.5,115.9c-0.1-0.1-0.9-0.5-1.1-0.6c-0.2-0.1-0.4-0.3-0.5-0.5c-0.1-0.2-0.5-0.9-0.6-1.1
					c-0.1-0.2-0.4-0.3-0.6-0.2c-0.1,0-0.1,0.1-0.2,0.2c-0.1,0.1-0.5,0.9-0.6,1.1c-0.1,0.2-0.3,0.4-0.5,0.5c-0.2,0.1-0.9,0.5-1.1,0.6
					c-0.2,0.1-0.3,0.4-0.2,0.6c0,0.1,0.1,0.1,0.2,0.2c0.1,0.1,0.9,0.5,1.1,0.6c0.2,0.1,0.4,0.3,0.5,0.5c0.1,0.2,0.5,0.9,0.6,1.1
					c0.1,0.2,0.4,0.3,0.6,0.2c0.1,0,0.1-0.1,0.2-0.2c0.1-0.1,0.5-0.9,0.6-1.1c0.1-0.2,0.3-0.4,0.5-0.5c0.2-0.1,0.9-0.5,1.1-0.6
					c0.2-0.1,0.3-0.4,0.2-0.6C-103.4,116-103.5,115.9-103.5,115.9z"/>
			</g>
			<g id="椭圆_88_1_">
				<circle class="st133" cx="-63.3" cy="50.5" r="1.4"/>
			</g>
			<g id="椭圆_89_1_">
				<circle class="st133" cx="-149.7" cy="63.4" r="1.4"/>
			</g>
			<g id="椭圆_90_1_">
				<circle class="st131" cx="-90.9" cy="111.2" r="1.4"/>
			</g>
			<g id="椭圆_91_1_">
				<ellipse class="st132" cx="-67.3" cy="88.5" rx="1.1" ry="0.5"/>
			</g>
			<g id="椭圆_92_1_">
				<circle class="st132" cx="-100" cy="2.4" r="1.1"/>
			</g>
			<g id="椭圆_93_1_">
				<circle class="st133" cx="-140.7" cy="11.4" r="0.5"/>
			</g>
			<g id="椭圆_94_1_">
				<circle class="st132" cx="-119" cy="114.4" r="1.1"/>
			</g>
			<g id="椭圆_95_1_">
				<circle class="st132" cx="-166.6" cy="53.1" r="1.1"/>
			</g>
			<g id="椭圆_96_1_">
				<circle class="st131" cx="-125.4" cy="8.7" r="2.1"/>
			</g>
		</g>
		<g id="组_927_1_" transform="translate(42.878 37.657)">
			<g id="组_925_1_">
				<g id="组_914_1_" transform="translate(6.96 5.221)">
					<g id="路径_725_1_">
						<path class="st131" d="M-101.7,9.9c0-3-2.5-5.5-5.5-5.5c0,0,0,0,0,0h-38.6l-18.4,18.4v55.2c0,3,2.5,5.5,5.5,5.5c0,0,0,0,0,0
							h51.5c3,0,5.5-2.5,5.5-5.5c0,0,0,0,0,0V9.9z"/>
					</g>
					<g id="路径_726_1_">
						<path class="st134" d="M-107.2,32.9c-9.1,0-16.5,7.4-16.5,16.6c0,9.1,7.4,16.5,16.6,16.5c1.9,0,3.7-0.3,5.5-0.9V33.8
							C-103.5,33.2-105.4,32.9-107.2,32.9z"/>
					</g>
					<g id="路径_727_1_">
						<path d="M-107.2,85.3h-12.9c-1,0-1.8-0.8-1.8-1.8s0.8-1.8,1.8-1.8l0,0h12.9c2,0,3.7-1.6,3.7-3.7v-68c0-2-1.6-3.7-3.7-3.7
							h-37.9l-17.3,17.3v54.4c0,2,1.6,3.7,3.7,3.7h31.3c1,0,1.8,0.8,1.8,1.8s-0.8,1.8-1.8,1.8h-31.3c-4.1,0-7.4-3.3-7.4-7.4V22.8
							c0-0.5,0.2-1,0.5-1.3l18.4-18.4c0.3-0.3,0.8-0.5,1.3-0.5h38.6c4.1,0,7.4,3.3,7.4,7.4v68C-99.9,82-103.2,85.3-107.2,85.3z"/>
					</g>
				</g>
				<g id="组_918_1_">
					<g id="组_915_1_" transform="translate(1.74 1.741)">
						<g id="路径_728_1_">
							<path class="st135" d="M-103.8,7.8c0-3-2.5-5.5-5.5-5.5c0,0,0,0,0,0h-34.9l-22.1,22.1v51.5c0,3,2.5,5.5,5.5,5.5c0,0,0,0,0,0
								h51.5c3,0,5.5-2.5,5.5-5.5c0,0,0,0,0,0V7.8z"/>
						</g>
						<g id="路径_729_1_">
							<path class="st136" d="M-118.6,52.9c0,8.4,6.3,15.5,14.7,16.4V36.5C-112.2,37.4-118.6,44.5-118.6,52.9z"/>
						</g>
						<g id="路径_730_1_">
							<path class="st136" d="M-109.4,2.3h-3.7c3,0,5.5,2.5,5.5,5.5c0,0,0,0,0,0V74c0,2-1.6,3.7-3.7,3.7c0,0,0,0,0,0h-49.6
								c-3,0-5.5-2.5-5.5-5.5c0,0,0,0,0,0v3.7c0,3,2.5,5.5,5.5,5.5c0,0,0,0,0,0h51.5c3,0,5.5-2.5,5.5-5.5c0,0,0,0,0,0v-68
								C-103.8,4.8-106.3,2.3-109.4,2.3C-109.4,2.3-109.4,2.3-109.4,2.3z"/>
						</g>
						<g id="路径_731_1_">
							<path class="st137" d="M-107.5,68.5c1.2,0.4,2.4,0.7,3.7,0.8V36.5c-1.3,0.1-2.5,0.4-3.7,0.8V68.5z"/>
						</g>
						<g id="路径_732_1_">
							<path class="st136" d="M-144.3,2.3l-22.1,22.1v1.8h20.2c3,0,5.5-2.5,5.5-5.5c0,0,0,0,0,0V2.3H-144.3z"/>
						</g>
					</g>
					<g id="组_917_1_">
						<g id="路径_733_1_">
							<path d="M-107.6,85h-51.5c-4.1,0-7.4-3.3-7.4-7.4V48.2c0-1,0.8-1.8,1.8-1.8c1,0,1.8,0.8,1.8,1.8v29.4c0,2,1.6,3.7,3.7,3.7
								h51.5c2,0,3.7-1.6,3.7-3.7v-68c0-2-1.6-3.7-3.7-3.7h-34.9c-1,0-1.8-0.8-1.8-1.8c0-1,0.8-1.8,1.8-1.8h34.9
								c4.1,0,7.4,3.3,7.4,7.4v68C-100.3,81.7-103.6,85-107.6,85z"/>
						</g>
						<g id="路径_734_1_">
							<path d="M-164.6,44.5c-1,0-1.8-0.8-1.8-1.8v-1.8c0-1,0.8-1.8,1.8-1.8c1,0,1.8,0.8,1.8,1.8v1.8
								C-162.8,43.7-163.6,44.5-164.6,44.5z"/>
						</g>
						<g id="路径_735_1_">
							<path d="M-164.6,37.2c-1,0-1.8-0.8-1.8-1.8v-9.2c0-1,0.8-1.8,1.8-1.8c1,0,1.8,0.8,1.8,1.8v9.2
								C-162.8,36.3-163.6,37.2-164.6,37.2z"/>
						</g>
						<g id="组_916_1_">
							<g id="路径_736_1_">
								<path class="st135" d="M-164.6,26.1h16.6c3,0,5.5-2.5,5.5-5.5c0,0,0,0,0,0V4.1L-164.6,26.1z"/>
							</g>
							<g id="路径_737_1_">
								<path d="M-148.1,28h-16.6c-1,0-1.8-0.8-1.8-1.8c0-0.5,0.2-1,0.5-1.3l22.1-22.1c0.7-0.7,1.9-0.7,2.6,0
									c0.3,0.3,0.5,0.8,0.5,1.3v16.6C-140.7,24.7-144,28-148.1,28z M-160.2,24.3h12.1c2,0,3.7-1.6,3.7-3.7V8.5L-160.2,24.3z"/>
							</g>
						</g>
					</g>
				</g>
				<g id="组_924_1_" transform="translate(13.919 13.921)">
					<g id="组_919_1_" transform="translate(0 45.237)">
						<g id="路径_738_1_">
							<path d="M-136.3,9.3h-3.7c-1,0-1.8-0.8-1.8-1.8c0-1,0.8-1.8,1.8-1.8h3.7c1,0,1.8,0.8,1.8,1.8C-134.4,8.5-135.2,9.3-136.3,9.3
								z"/>
						</g>
						<g id="路径_739_1_">
							<path d="M-145.5,9.3h-18.4c-1,0-1.8-0.8-1.8-1.8c0-1,0.8-1.8,1.8-1.8h18.4c1,0,1.8,0.8,1.8,1.8
								C-143.6,8.5-144.4,9.3-145.5,9.3L-145.5,9.3z"/>
						</g>
					</g>
					<g id="组_920_1_" transform="translate(0 38.277)">
						<g id="路径_740_1_">
							<path d="M-136.3,8.9h-3.7c-1,0-1.8-0.8-1.8-1.8s0.8-1.8,1.8-1.8c0,0,0,0,0,0h3.7c1,0,1.8,0.8,1.8,1.8
								C-134.4,8.1-135.2,8.9-136.3,8.9C-136.3,8.9-136.3,8.9-136.3,8.9z"/>
						</g>
						<g id="路径_741_1_">
							<path d="M-145.5,8.9h-18.4c-1,0-1.8-0.8-1.8-1.8c0-1,0.8-1.8,1.8-1.8c0,0,0,0,0,0h18.4c1,0,1.8,0.8,1.8,1.8
								C-143.6,8.1-144.4,8.9-145.5,8.9C-145.4,8.9-145.4,8.9-145.5,8.9L-145.5,8.9z"/>
						</g>
					</g>
					<g id="组_921_1_" transform="translate(0 31.318)">
						<g id="路径_742_1_">
							<path d="M-136.3,8.5h-3.7c-1,0-1.8-0.8-1.8-1.8s0.8-1.8,1.8-1.8c0,0,0,0,0,0h3.7c1,0,1.8,0.8,1.8,1.8
								C-134.4,7.7-135.2,8.5-136.3,8.5z"/>
						</g>
						<g id="路径_743_1_">
							<path d="M-145.5,8.5h-18.4c-1,0-1.8-0.8-1.8-1.8c0-1,0.8-1.8,1.8-1.8c0,0,0,0,0,0h18.4c1,0,1.8,0.8,1.8,1.8
								C-143.6,7.7-144.4,8.5-145.5,8.5L-145.5,8.5z"/>
						</g>
					</g>
					<g id="组_922_1_" transform="translate(0 24.358)">
						<g id="路径_744_1_">
							<path d="M-136.3,8.1h-3.7c-1,0-1.8-0.8-1.8-1.8s0.8-1.8,1.8-1.8c0,0,0,0,0,0h3.7c1,0,1.8,0.8,1.8,1.8
								C-134.4,7.3-135.2,8.1-136.3,8.1C-136.3,8.1-136.3,8.1-136.3,8.1z"/>
						</g>
						<g id="路径_745_1_">
							<path d="M-145.5,8.1h-18.4c-1,0-1.8-0.8-1.8-1.8c0-1,0.8-1.8,1.8-1.8c0,0,0,0,0,0h18.4c1,0,1.8,0.8,1.8,1.8
								C-143.6,7.3-144.4,8.1-145.5,8.1C-145.4,8.1-145.4,8.1-145.5,8.1L-145.5,8.1z"/>
						</g>
					</g>
					<g id="组_923_1_" transform="translate(0 17.399)">
						<g id="路径_746_1_">
							<path d="M-136.3,7.7h-3.7c-1,0-1.8-0.8-1.8-1.8S-141,4-139.9,4c0,0,0,0,0,0h3.7c1,0,1.8,0.8,1.8,1.8
								C-134.4,6.9-135.2,7.7-136.3,7.7z"/>
						</g>
						<g id="路径_747_1_">
							<path d="M-145.5,7.7h-18.4c-1,0-1.8-0.8-1.8-1.8c0-1,0.8-1.8,1.8-1.8c0,0,0,0,0,0h18.4c1,0,1.8,0.8,1.8,1.8
								C-143.6,6.9-144.4,7.7-145.5,7.7L-145.5,7.7z"/>
						</g>
					</g>
					<g id="路径_748_1_">
						<path d="M-127.1,14.1h-18.4c-1,0-1.8-0.8-1.8-1.8c0-1,0.8-1.8,1.8-1.8c0,0,0,0,0,0h18.4c1,0,1.8,0.8,1.8,1.8
							C-125.2,13.2-126,14.1-127.1,14.1L-127.1,14.1z"/>
					</g>
					<g id="路径_749_1_">
						<path d="M-127.1,6.7h-18.4c-1,0-1.8-0.8-1.8-1.8c0-1,0.8-1.8,1.8-1.8c0,0,0,0,0,0h18.4c1,0,1.8,0.8,1.8,1.8
							C-125.2,5.9-126,6.7-127.1,6.7L-127.1,6.7z"/>
					</g>
				</g>
			</g>
			<g id="组_926_1_" transform="translate(45.237 31.319)">
				<g id="椭圆_97_1_">
					<ellipse class="st132" cx="-147.1" cy="20.4" rx="14.8" ry="15.3"/>
				</g>
				<g id="路径_750_1_">
					<path class="st133" d="M-138.4,8.9c4.9,6.5,3.7,15.7-2.8,20.6c-5.3,4-12.6,4-17.9,0c4.9,6.5,14.2,7.7,20.6,2.8
						c6.5-4.9,7.7-14.2,2.8-20.6C-136.5,10.6-137.4,9.7-138.4,8.9z"/>
				</g>
				<g id="路径_751_1_">
					<path class="st135" d="M-144.6,8.6c3.2,0,6.4,1.1,8.9,3c-4.9-6.5-14.2-7.7-20.6-2.8S-164,23-159,29.5c0.8,1,1.7,2,2.8,2.8
						c-4.9-6.5-3.7-15.7,2.8-20.6C-151,9.7-147.8,8.6-144.6,8.6L-144.6,8.6z"/>
				</g>
				<g id="路径_752_1_">
					<path d="M-147.3,37.1c-9.1,0-16.6-7.4-16.6-16.6c0-9.1,7.4-16.6,16.6-16.6c9.1,0,16.6,7.4,16.6,16.6
						C-130.8,29.7-138.2,37.1-147.3,37.1z M-147.3,7.7c-7.1,0-12.9,5.8-12.9,12.9s5.8,12.9,12.9,12.9s12.9-5.8,12.9-12.9v0
						C-134.5,13.5-140.2,7.7-147.3,7.7z"/>
				</g>
				<g id="路径_753_1_">
					<path d="M-147.3,31.6c-1,0-1.8-0.8-1.8-1.8c0,0,0,0,0,0v-1.8c0-1,0.8-1.8,1.8-1.8s1.8,0.8,1.8,1.8l0,0v1.8
						C-145.5,30.8-146.3,31.6-147.3,31.6C-147.3,31.6-147.3,31.6-147.3,31.6z"/>
				</g>
				<g id="路径_754_1_">
					<path d="M-147.3,15c-1,0-1.8-0.8-1.8-1.8c0,0,0,0,0,0v-1.8c0-1,0.8-1.8,1.8-1.8s1.8,0.8,1.8,1.8l0,0v1.8
						C-145.5,14.2-146.3,15-147.3,15C-147.3,15-147.3,15-147.3,15z"/>
				</g>
				<g id="路径_755_1_">
					<path d="M-147.3,29.8c-3.5,0-6.4-2.5-6.4-5.5c0-1,0.8-1.8,1.8-1.8c1,0,1.8,0.8,1.8,1.8l0,0c0,1,1.3,1.8,2.8,1.8
						c1.5,0,2.8-0.9,2.8-1.8c0-1-1.3-1.8-2.8-1.8c-3.5,0-6.4-2.5-6.4-5.5s2.9-5.5,6.4-5.5s6.4,2.5,6.4,5.5c0,1-0.8,1.8-1.8,1.8
						s-1.8-0.8-1.8-1.8c0-1-1.3-1.8-2.8-1.8c-1.5,0-2.8,0.9-2.8,1.8c0,1,1.3,1.8,2.8,1.8c3.5,0,6.4,2.5,6.4,5.5
						S-143.8,29.8-147.3,29.8z"/>
				</g>
			</g>
		</g>
	</g>
</g>
</svg>
